%YAML 1.1
%TAG !u! tag:unity3d.com,2011:
--- !u!78 &1
TagManager:
  serializedVersion: 2
  tags:
  - PlaceToSpawn
  - PlaceToDestroy
  - Background
  - Mark
  - FirstBuilding
  - 0
  - 1
  - 2
  - 3
  - Tool2
  - Tool4
  - Tool1
  - Tool3
  - Fil1
  - Fil2
  - LimiteCameraBas
  - LimiteCameraHaut
  - LimiteCameraDroite
  - LimiteCameraGauche
  - DestroyClouds
  layers:
  - Default
  - TransparentFX
  - Ignore Raycast
  - 
  - Water
  - UI
  - 
  - 
  - Moteur
  - Nacelle
  - 
  - 
  - 
  - 
  - 
  - 
  - 
  - 
  - 
  - 
  - 
  - 
  - 
  - 
  - 
  - 
  - 
  - 
  - 
  - 
  - 
  - 
  m_SortingLayers:
  - name: Default
    uniqueID: 0
    locked: 0
